module gitlab.com/DiAngelo/hello-go

go 1.19

require (
	github.com/Masterminds/sprig/v3 v3.2.2
	rsc.io/quote/v4 v4.0.1
)

require (
	github.com/Masterminds/goutils v1.1.1 // indirect
	github.com/Masterminds/semver/v3 v3.1.1 // indirect
	github.com/google/uuid v1.1.1 // indirect
	github.com/huandu/xstrings v1.3.1 // indirect
	github.com/imdario/mergo v0.3.11 // indirect
	github.com/mitchellh/copystructure v1.0.0 // indirect
	github.com/mitchellh/reflectwalk v1.0.0 // indirect
	github.com/shopspring/decimal v1.2.0 // indirect
	github.com/spf13/cast v1.3.1 // indirect
	golang.org/x/crypto v0.0.0-20200414173820-0848c9571904 // indirect
	golang.org/x/text v0.3.0 // indirect
	rsc.io/sampler v1.3.0 // indirect
)
